{
    "ping": {
        "usage": "Type `ping` anywhere to receive a 'pong' in reply",
        "scope": "Any channel",
        "permissions": "@everyone",
        "purpose": "Replies \"Pong\" to any instance of \"ping\" in a message"
    }
}